<svg width="123" height="22" viewBox="0 0 123 22" fill="none" xmlns="http://www.w3.org/2000/svg">
<path d="M4.74461 1.54803C4.95488 0.641652 5.76243 0 6.69287 0H121.741C122.385 0 122.861 0.599075 122.716 1.22599L118.255 20.452C118.045 21.3583 117.238 22 116.307 22H1.25854C0.614984 22 0.138978 21.4009 0.284414 20.774L4.74461 1.54803Z" fill="#FD7F0E"/>
<path d="M27.2102 15.144C28.7462 15.144 29.9342 14.544 30.7982 13.812V10.164H27.1502V11.76H29.0102V12.96C28.5422 13.296 27.9422 13.464 27.2702 13.464C25.7822 13.464 24.7262 12.336 24.7262 10.8C24.7262 9.348 25.7942 8.16 27.1382 8.16C28.1102 8.16 28.6862 8.472 29.3342 9.012L30.4982 7.608C29.6222 6.864 28.7102 6.456 27.1982 6.456C24.6542 6.456 22.7942 8.412 22.7942 10.8C22.7942 13.308 24.5942 15.144 27.2102 15.144ZM36.6564 15.144C39.2484 15.144 41.1324 13.188 41.1324 10.8C41.1324 8.388 39.2724 6.456 36.6804 6.456C34.0884 6.456 32.2044 8.412 32.2044 10.8C32.2044 13.212 34.0644 15.144 36.6564 15.144ZM36.6804 13.44C35.1924 13.44 34.1364 12.24 34.1364 10.8C34.1364 9.336 35.1684 8.16 36.6564 8.16C38.1444 8.16 39.2004 9.36 39.2004 10.8C39.2004 12.264 38.1684 13.44 36.6804 13.44ZM42.8557 15H44.7037V6.6H42.8557V15ZM46.8029 15H48.6269V9.66L52.6949 15H54.2669V6.6H52.4429V11.772L48.5069 6.6H46.8029V15ZM60.3274 15.144C61.8634 15.144 63.0514 14.544 63.9154 13.812V10.164L60.2674 10.164V11.76L62.1274 11.76V12.96C61.6594 13.296 61.0594 13.464 60.3874 13.464C58.8994 13.464 57.8434 12.336 57.8434 10.8C57.8434 9.348 58.9114 8.16 60.2554 8.16C61.2274 8.16 61.8034 8.472 62.4514 9.012L63.6154 7.608C62.7394 6.864 61.8274 6.456 60.3154 6.456C57.7714 6.456 55.9114 8.412 55.9114 10.8C55.9114 13.308 57.7114 15.144 60.3274 15.144ZM69.2912 15L71.1392 15V11.748H75.1472V10.068H71.1392V8.28H75.6872V6.6H69.2912V15ZM75.4853 15H77.3693L78.1373 13.116H81.6893L82.4573 15H84.3893L80.7893 6.54H79.0853L75.4853 15ZM78.7973 11.484L79.9133 8.76L81.0293 11.484H78.7973ZM88.5565 15.12C90.3685 15.12 91.6405 14.184 91.6405 12.516C91.6405 11.028 90.6805 10.416 88.9765 9.972C87.5245 9.6 87.1645 9.42 87.1645 8.868C87.1645 8.436 87.5365 8.112 88.2445 8.112C88.9525 8.112 89.6845 8.424 90.4285 8.94L91.3885 7.548C90.5365 6.864 89.4925 6.48 88.2685 6.48C86.5525 6.48 85.3285 7.488 85.3285 9.012C85.3285 10.704 86.4205 11.172 88.1125 11.604C89.5165 11.964 89.8045 12.204 89.8045 12.672C89.8045 13.188 89.3485 13.488 88.5925 13.488C87.6325 13.488 86.8405 13.092 86.0845 12.468L84.9925 13.776C86.0005 14.676 87.2845 15.12 88.5565 15.12ZM95.0245 15H96.8725V8.304H99.4285V6.6L92.4685 6.6V8.304H95.0245V15Z" fill="white"/>
</svg>
