<svg width="16" height="18" viewBox="0 0 16 18" fill="none" xmlns="http://www.w3.org/2000/svg">
<path d="M14.3792 7.24923C15.7567 8.00996 15.7567 9.99003 14.3792 10.7508L3.2663 16.8878C1.93333 17.624 0.299439 16.6598 0.299439 15.1371L0.29944 2.86293C0.29944 1.3402 1.93333 0.37603 3.2663 1.11216L14.3792 7.24923Z" fill="white"/>
</svg>
