<svg width="60" height="60" viewBox="0 0 60 60" fill="none" xmlns="http://www.w3.org/2000/svg">
<circle cx="30" cy="30" r="30" fill="white"/>
<path d="M15.3658 30.0001L36.2195 13.5244L36.2195 46.4757L15.3658 30.0001Z" fill="#FF65AB"/>
</svg>
