<svg width="42" height="25" viewBox="0 0 42 25" fill="none" xmlns="http://www.w3.org/2000/svg">
<rect width="48.0056" height="1.00363" transform="matrix(0.864499 0.502635 -0.49737 0.867539 0.5 0)" fill="#F559A0"/>
<rect width="48.0056" height="1.00363" transform="matrix(0.864499 -0.502635 0.49737 0.867539 0 24.1292)" fill="#F559A0"/>
</svg>
