<svg width="193" height="20" viewBox="0 0 193 20" version="1.1" xmlns="http://www.w3.org/2000/svg" xmlns:xlink="http://www.w3.org/1999/xlink">
<title>logo</title>
<desc>Created using Figma</desc>
<g id="Canvas" transform="translate(-3666 8584)">
<g id="logo">
<g id="Fill 1">
<use xlink:href="#path0_fill" transform="translate(3787.82 -8584)" fill="#F659A0"/>
</g>
<g id="Fill 3">
<use xlink:href="#path1_fill" transform="translate(3814.18 -8584)" fill="#3998CE"/>
</g>
<g id="Fill 5">
<use xlink:href="#path2_fill" transform="translate(3841.65 -8583.73)" fill="#111111"/>
</g>
<g id="Fill 8">
<use xlink:href="#path3_fill" transform="translate(3760.55 -8584)" fill="#111111"/>
</g>
<g id="Fill 10">
<use xlink:href="#path4_fill" transform="translate(3737.85 -8583.75)" fill="#111111"/>
</g>
<g id="Fill 13">
<use xlink:href="#path5_fill" transform="translate(3710.55 -8584)" fill="#111111"/>
</g>
<g id="Fill 15">
<use xlink:href="#path6_fill" transform="translate(3695.09 -8584)" fill="#111111"/>
</g>
<g id="Fill 17">
<use xlink:href="#path7_fill" transform="translate(3666 -8584)" fill="#111111"/>
</g>
</g>
</g>
<defs>
<path id="path0_fill" fill-rule="evenodd" d="M 0.785808 13.2542C 1.30968 14.4176 2.02434 15.4317 2.92883 16.295C 3.83396 17.158 4.89587 17.8398 6.11457 18.3396C 7.33326 18.8394 8.62877 19.0909 10.0008 19.0909C 11.3712 19.0909 12.6667 18.8394 13.8861 18.3396C 15.1038 17.8398 16.1664 17.158 17.0709 16.295C 17.9747 15.4317 18.6897 14.4176 19.2148 13.2542C 19.7381 12.0907 20 10.8539 20 9.54592C 20 8.23704 19.7381 7.00055 19.2148 5.83676C 18.6897 4.67265 17.9747 3.66018 17.0709 2.7956C 16.1664 1.9329 15.1038 1.25084 13.8861 0.750694C 12.6667 0.249919 11.3712 0 10.0008 0C 8.62877 0 7.33326 0.249919 6.11457 0.750694C 4.89587 1.25084 3.83396 1.9329 2.92883 2.7956C 2.02434 3.66018 1.30968 4.67265 0.785808 5.83676C 0.262566 7.00055 0 8.23704 0 9.54592C 0 10.8539 0.262566 12.0907 0.785808 13.2542ZM 6.31458 8.05921C 6.523 7.59587 6.80949 7.18995 7.17217 6.84518C 7.53328 6.50072 7.95672 6.2274 8.44313 6.02709C 8.9289 5.82741 9.44742 5.72787 10.0009 5.72787C 10.5522 5.72787 11.0726 5.82741 11.5577 6.02709C 12.0429 6.2274 12.4672 6.50072 12.8293 6.84518C 13.1901 7.18995 13.4769 7.59587 13.6866 8.05921C 13.895 8.52285 14.0008 9.01832 14.0008 9.54593C 14.0008 10.0726 13.895 10.5674 13.6866 11.0311C 13.4769 11.4944 13.1901 11.9 12.8293 12.2451C 12.4672 12.5905 12.0429 12.8635 11.5577 13.0635C 11.0726 13.2632 10.5522 13.3634 10.0009 13.3634C 9.44742 13.3634 8.9289 13.2632 8.44313 13.0635C 7.95672 12.8635 7.53328 12.5905 7.17217 12.2451C 6.80949 11.9 6.523 11.4944 6.31458 11.0311C 6.10491 10.5674 5.99976 10.0726 5.99976 9.54593C 5.99976 9.01832 6.10491 8.52285 6.31458 8.05921Z"/>
<path id="path1_fill" fill-rule="evenodd" d="M 0.785252 13.2542C 1.30854 14.4176 2.02327 15.4317 2.92974 16.295C 3.83369 17.158 4.89444 17.8398 6.11388 18.3396C 7.33395 18.8394 8.62896 19.0909 9.99984 19.0909C 11.3704 19.0909 12.6654 18.8394 13.8849 18.3396C 15.1049 17.8398 16.166 17.158 17.0721 16.295C 17.977 15.4317 18.6915 14.4176 19.2147 13.2542C 19.738 12.0907 20 10.8539 20 9.54592C 20 8.23704 19.738 7.00055 19.2147 5.83676C 18.6915 4.67265 17.977 3.66018 17.0721 2.7956C 16.166 1.9329 15.1049 1.25084 13.8849 0.750694C 12.6654 0.249919 11.3704 0 9.99984 0C 8.62896 0 7.33395 0.249919 6.11388 0.750694C 4.89444 1.25084 3.83369 1.9329 2.92974 2.7956C 2.02327 3.66018 1.30854 4.67265 0.785252 5.83676C 0.261331 7.00055 0 8.23704 0 9.54592C 0 10.8539 0.261331 12.0907 0.785252 13.2542ZM 6.31374 8.05921C 6.52343 7.59587 6.80869 7.18995 7.17078 6.84518C 7.53318 6.50072 7.95792 6.2274 8.44248 6.02709C 8.92768 5.82741 9.44814 5.72787 9.99976 5.72787C 10.553 5.72787 11.0722 5.82741 11.5567 6.02709C 12.0419 6.2274 12.4663 6.50072 12.8291 6.84518C 13.1889 7.18995 13.4767 7.59587 13.6864 8.05921C 13.8961 8.52285 14 9.01832 14 9.54593C 14 10.0726 13.8961 10.5674 13.6864 11.0311C 13.4767 11.4944 13.1889 11.9 12.8291 12.2451C 12.4663 12.5905 12.0419 12.8635 11.5567 13.0635C 11.0722 13.2632 10.553 13.3634 9.99976 13.3634C 9.44814 13.3634 8.92768 13.2632 8.44248 13.0635C 7.95792 12.8635 7.53318 12.5905 7.17078 12.2451C 6.80869 11.9 6.52343 11.4944 6.31374 11.0311C 6.10404 10.5674 5.99951 10.0726 5.99951 9.54593C 5.99951 9.01832 6.10404 8.52285 6.31374 8.05921Z"/>
<path id="path2_fill" fill-rule="evenodd" d="M 5.43683 19.7303C 7.27747 19.7303 8.91775 19.5181 10.3567 19.0952C 11.7963 18.6706 13.0114 18.0435 14.0003 17.2171C 14.9896 16.3874 15.7439 15.3574 16.2631 14.1242C 16.7819 12.8926 17.0413 11.4677 17.0413 9.85097C 17.0413 8.2329 16.7819 6.80806 16.2631 5.57581C 15.7439 4.34419 14.9896 3.31258 14.0003 2.48484C 13.0114 1.65548 11.7963 1.03484 10.3567 0.620645C 8.91775 0.207419 7.27747 0 5.43683 0L 0 0L 0 19.7303L 5.43683 19.7303ZM 6.25806 5.61935C 7.72781 5.61935 8.86373 5.96581 9.66738 6.65613C 10.4682 7.34548 10.8708 8.41032 10.8708 9.85097C 10.8708 11.2897 10.4682 12.3597 9.66738 13.0606C 8.86373 13.76 7.72781 14.111 6.25806 14.111L 6.25806 5.61935Z"/>
<path id="path3_fill" fill-rule="evenodd" d="M 15.6431 0L 10.4687 7.32806L 5.26467 0L 0 0L 0 19.0909L 6.37112 19.0909L 6.37112 12.2226L 10.4687 17.9467L 14.5373 12.2226L 14.5373 19.0909L 20.9091 19.0909L 20.9091 0L 15.6431 0Z"/>
<path id="path4_fill" fill-rule="evenodd" d="M 0 0L 0 19.7529L 12.6196 19.7529L 12.6196 14.5706L 6.11654 14.5706L 6.11654 12.2894L 12.3324 12.2894L 12.3324 7.37355L 6.11654 7.37355L 6.11654 5.18194L 12.4193 5.18194L 12.4193 0L 0 0Z"/>
<path id="path5_fill" fill-rule="evenodd" d="M 10.9162 0L 10.9162 7.35646L 5.32181 0L 0 0L 0 19.0909L 6.35493 19.0909L 6.35493 11.7638L 11.9198 19.0909L 17.2727 19.0909L 17.2727 0L 10.9162 0Z"/>
<path id="path6_fill" fill-rule="evenodd" d="M 0 19.0909L 6.36364 19.0909L 6.36364 0L 0 0L 0 19.0909Z"/>
<path id="path7_fill" fill-rule="evenodd" d="M 0.787992 13.4311C 1.31375 14.6043 2.04164 15.6093 2.97586 16.4453C 3.90814 17.2827 5.01718 17.9311 6.29975 18.3948C 7.58361 18.8588 8.98285 19.0909 10.5 19.0909C 11.6277 19.0909 12.6288 18.9817 13.5029 18.7642C 14.3789 18.5449 15.1274 18.309 15.7492 18.0544C 16.4684 17.7451 20.5958 15.9828 20.9091 10.7967L 14.6367 10.7967C 14.4834 11.8869 13.9216 12.4541 13.5331 12.6542C 13.2014 12.8364 12.7939 12.9996 12.3077 13.1453C 11.8221 13.291 11.2671 13.3634 10.6456 13.3634C 10.0231 13.3634 9.45011 13.2642 8.92532 13.0626C 8.40021 12.8638 7.94322 12.5908 7.55437 12.2457C 7.16552 11.9003 6.85925 11.4959 6.63558 11.0319C 6.41191 10.5686 6.29975 10.0731 6.29975 9.54545C 6.29975 9.01782 6.40677 8.52295 6.6208 8.05897C 6.83515 7.59499 7.13145 7.19092 7.51002 6.84582C 7.8902 6.50009 8.33208 6.22707 8.83695 6.02769C 9.34246 5.82737 9.89649 5.7269 10.5 5.7269C 11.0833 5.7269 11.603 5.79492 12.0603 5.93221C 12.5166 6.06857 12.9106 6.20898 13.241 6.35438C 13.6099 6.55501 14.5467 7.16939 14.6367 8.13042L 20.9091 8.13042C 20.4348 2.92585 16.1763 1.27212 15.4577 0.981317C 14.8353 0.727641 14.0913 0.500799 13.2265 0.299232C 12.3617 0.0989118 11.3741 0 10.267 0C 8.86619 0 7.54409 0.223098 6.29975 0.668045C 5.05574 1.11393 3.9676 1.75514 3.03306 2.59168C 2.10045 3.42697 1.36163 4.43231 0.816914 5.60458C 0.272519 6.77686 0 8.09142 0 9.54545C 0 10.9639 0.263842 12.2585 0.787992 13.4311Z"/>
</defs>
</svg>
