<svg viewBox="0 0 194 20" fill="none" xmlns="http://www.w3.org/2000/svg">
<path d="M123.549 13.871C123.065 12.5806 122.742 11.2903 122.742 10C122.742 8.70968 123.065 7.41935 123.549 6.12903C124.032 4.83871 124.839 3.87097 125.645 2.90323C126.613 1.93548 127.581 1.29032 128.871 0.806452C130.161 0.322581 131.452 0 132.903 0C134.355 0 135.645 0.322581 136.774 0.806452C138.065 1.29032 139.032 2.09677 140 2.90323C140.968 3.87097 141.613 4.83871 142.097 6.12903C142.581 7.41935 142.903 8.70968 142.903 10C142.903 11.2903 142.581 12.5806 142.097 13.871C141.613 15.1613 140.807 16.129 140 17.0968C139.032 18.0645 138.065 18.7097 136.774 19.1935C135.484 19.6774 134.194 20 132.903 20C131.452 20 130.161 19.6774 129.032 19.1935C127.742 18.7097 126.774 17.9032 125.807 17.0968C124.839 16.129 124.032 15 123.549 13.871ZM129.194 8.3871C129.032 8.87097 128.871 9.35484 128.871 10C128.871 10.4839 129.032 11.129 129.194 11.6129C129.355 12.0968 129.678 12.5806 130 12.9032C130.323 13.2258 130.807 13.5484 131.291 13.7097C131.774 13.871 132.258 14.0323 132.903 14.0323C133.387 14.0323 134.032 13.871 134.516 13.7097C135 13.5484 135.484 13.2258 135.807 12.9032C136.129 12.5806 136.452 12.0968 136.613 11.6129C136.774 11.129 136.936 10.6452 136.936 10C136.936 9.51613 136.774 8.87097 136.613 8.3871C136.452 7.90323 136.129 7.41935 135.807 7.09677C135.484 6.77419 135 6.45161 134.516 6.29032C134.032 6.12903 133.549 5.96774 132.903 5.96774C132.42 5.96774 131.774 6.12903 131.291 6.29032C130.807 6.45161 130.323 6.77419 130 7.09677C129.678 7.58065 129.355 7.90323 129.194 8.3871Z" fill="white"/>
<path d="M150.001 13.871C150.485 15.1613 151.291 16.129 152.097 17.0968C153.065 18.0645 154.033 18.7097 155.323 19.1935C156.614 19.6774 157.904 20 159.194 20C160.646 20 161.936 19.6774 163.065 19.1935C164.355 18.7097 165.323 17.9032 166.291 17.0968C167.259 16.129 167.904 15.1613 168.388 13.871C168.872 12.5806 169.194 11.2903 169.194 10C169.194 8.70968 168.872 7.41935 168.388 6.12903C167.904 4.83871 167.097 3.87097 166.291 2.90323C165.323 1.93548 164.355 1.29032 163.065 0.806452C162.097 0.322581 160.807 0 159.356 0C157.904 0 156.614 0.322581 155.485 0.806452C154.194 1.29032 153.226 2.09677 152.259 2.90323C151.291 3.87097 150.646 4.83871 150.162 6.12903C149.678 7.41935 149.355 8.70968 149.355 10C149.194 11.2903 149.517 12.5806 150.001 13.871ZM155.646 8.3871C155.807 7.90323 156.13 7.41935 156.452 7.09677C156.775 6.77419 157.259 6.45161 157.743 6.29032C158.226 6.12903 158.71 5.96774 159.356 5.96774C159.839 5.96774 160.485 6.12903 160.968 6.29032C161.452 6.45161 161.936 6.77419 162.259 7.09677C162.581 7.41935 162.904 7.90323 163.065 8.3871C163.226 8.87097 163.388 9.35484 163.388 10C163.388 10.4839 163.226 11.129 163.065 11.6129C162.904 12.0968 162.581 12.5806 162.259 12.9032C161.936 13.2258 161.452 13.5484 160.968 13.7097C160.485 13.871 160.001 14.0323 159.356 14.0323C158.872 14.0323 158.226 13.871 157.743 13.7097C157.259 13.5484 156.775 13.2258 156.452 12.9032C156.13 12.5806 155.807 12.0968 155.646 11.6129C155.485 11.129 155.323 10.6452 155.323 10C155.323 9.35484 155.485 8.87097 155.646 8.3871Z" fill="white"/>
<path d="M181.613 20C183.549 20 185.162 19.8387 186.613 19.3548C188.065 18.871 189.355 18.2258 190.323 17.4194C191.291 16.6129 192.097 15.4839 192.581 14.3548C193.065 13.0645 193.388 11.6129 193.388 10C193.388 8.3871 193.065 6.93548 192.581 5.64516C192.097 4.35484 191.291 3.3871 190.323 2.58065C189.355 1.77419 188.065 1.12903 186.613 0.645161C185.162 0.16129 183.549 0 181.613 0H176.13V19.8387H181.613V20ZM182.581 5.64516C184.033 5.64516 185.162 5.96774 185.968 6.6129C186.775 7.25806 187.259 8.3871 187.259 9.83871C187.259 11.2903 186.775 12.4194 185.968 13.0645C185.162 13.7097 184.033 14.1935 182.581 14.1935V5.64516Z" fill="white"/>
<path d="M110.162 0L105 7.74194L99.839 0H94.5164V20H100.968V12.7419L105 18.7097L109.194 12.7419V20H115.484V0H110.162Z" fill="white"/>
<path d="M72.2579 0V20H85.1611V14.6774H78.5482V12.4194H84.8385V7.41935H78.5482V5.16129H84.9998V0H72.2579Z" fill="white"/>
<path d="M55.6455 0V7.74194L50.1616 0H44.6777V20H51.1293V12.2581L56.7745 20H62.0971V0H55.6455Z" fill="white"/>
<path d="M35.3227 0H28.8711V19.8387H35.3227V0Z" fill="white"/>
<path d="M0.806452 14.0323C1.29032 15.3226 2.09677 16.2903 2.90323 17.0968C3.87097 17.9032 5 18.7097 6.12903 19.1935C7.41935 19.6774 8.87097 20 10.3226 20C11.4516 20 12.4194 19.8387 13.2258 19.6774C14.0323 19.5161 14.8387 19.1935 15.4839 18.871C16.129 18.5484 20.3226 16.7742 20.6452 11.2903H14.5161C14.3548 12.4194 13.871 13.0645 13.3871 13.2258C13.0645 13.3871 12.7419 13.5484 12.2581 13.7097C11.7742 13.871 11.2903 13.871 10.6452 13.871C10 13.871 9.51613 13.7097 8.87097 13.5484C8.3871 13.3871 7.90323 13.2258 7.58065 12.7419C7.09677 12.4194 6.77419 11.9355 6.6129 11.4516C6.45161 10.9677 6.29032 10.4839 6.29032 10C6.29032 9.51613 6.45161 8.87097 6.6129 8.3871C6.77419 7.90323 7.09677 7.41935 7.41935 7.09677C7.90323 6.77419 8.22581 6.45161 8.70968 6.29032C9.19355 6.12903 9.83871 5.96774 10.3226 5.96774C10.9677 5.96774 11.4516 5.96774 11.9355 6.12903C12.4194 6.29032 12.9032 6.45161 13.2258 6.6129C13.5484 6.77419 14.5161 7.41936 14.5161 8.54839H20.8065C20.3226 3.06452 16.129 1.29032 15.3226 0.967742C14.6774 0.806452 14.0323 0.483871 13.0645 0.322581C12.2581 0.16129 11.2903 0 10.1613 0C8.87097 0 7.41935 0.322581 6.29032 0.645161C5 1.12903 4.03226 1.77419 3.06452 2.58065C2.09677 3.3871 1.45161 4.51613 0.806452 5.64516C0.322581 7.09677 0 8.3871 0 10C0 11.4516 0.322581 12.7419 0.806452 14.0323Z" fill="white"/>
</svg>
