<svg width="149" height="153" viewBox="0 0 149 153" fill="none" xmlns="http://www.w3.org/2000/svg">
<g filter="url(#filter0_d)">
<path d="M66.0175 8.16134C69.9673 5.62584 75.0327 5.62584 78.9825 8.16134L88.267 14.1214C90.0036 15.2361 91.9982 15.8842 94.0583 16.0031L105.073 16.6386C109.759 16.909 113.857 19.8864 115.562 24.2593L119.57 34.5383C120.32 36.4609 121.552 38.1576 123.149 39.4647L131.687 46.453C135.318 49.426 136.884 54.2435 135.693 58.7835L132.894 69.4553C132.37 71.4514 132.37 73.5486 132.894 75.5447L135.693 86.2165C136.884 90.7565 135.318 95.574 131.686 98.547L123.149 105.535C121.552 106.842 120.32 108.539 119.57 110.462L115.562 120.741C113.857 125.114 109.759 128.091 105.073 128.361L94.0583 128.997C91.9982 129.116 90.0035 129.764 88.267 130.879L78.9825 136.839C75.0327 139.374 69.9673 139.374 66.0175 136.839L56.733 130.879C54.9964 129.764 53.0018 129.116 50.9417 128.997L39.9271 128.361C35.2414 128.091 31.1433 125.114 29.4382 120.741L25.4301 110.462C24.6805 108.539 23.4477 106.842 21.8509 105.535L13.3135 98.547C9.68155 95.574 8.11624 90.7565 9.3071 86.2165L12.1064 75.5447C12.6299 73.5486 12.6299 71.4514 12.1064 69.4553L9.3071 58.7835C8.11625 54.2435 9.68155 49.426 13.3135 46.453L21.8509 39.4647C23.4477 38.1576 24.6805 36.4609 25.4301 34.5383L29.4382 24.2593C31.1433 19.8864 35.2414 16.909 39.9271 16.6386L50.9417 16.0031C53.0018 15.8842 54.9965 15.2361 56.733 14.1214L66.0175 8.16134Z" fill="#F559A0"/>
</g>
<path d="M41.2453 103.09H43.6573L46.5013 94.846L49.3453 103.09H51.7573L56.0593 90.4H53.1613L50.5513 98.932L47.7253 90.364H45.3493L42.5233 98.932L39.9133 90.4H36.9433L41.2453 103.09ZM57.6149 92.29H60.4949V89.86H57.6149V92.29ZM57.6869 103H60.4229V93.352H57.6869V103ZM62.9926 103H65.7286V97.618C65.7286 96.322 66.3946 95.656 67.4386 95.656C68.4826 95.656 69.0946 96.322 69.0946 97.618V103H71.8306V96.754C71.8306 94.54 70.6246 93.172 68.5546 93.172C67.1686 93.172 66.3586 93.91 65.7286 94.72V93.352H62.9926V103ZM74.2074 103H76.9434V97.618C76.9434 96.322 77.6094 95.656 78.6534 95.656C79.6974 95.656 80.3094 96.322 80.3094 97.618V103H83.0454V96.754C83.0454 94.54 81.8394 93.172 79.7694 93.172C78.3834 93.172 77.5734 93.91 76.9434 94.72V93.352H74.2074V103ZM89.9942 103.216C91.7402 103.216 93.0362 102.532 93.9362 101.416L92.3702 100.03C91.6142 100.732 90.9482 101.02 90.0302 101.02C88.8062 101.02 87.9422 100.372 87.6722 99.13H94.3862C94.4042 98.878 94.4222 98.626 94.4222 98.41C94.4222 95.674 92.9462 93.172 89.7242 93.172C86.9162 93.172 84.9542 95.44 84.9542 98.194C84.9542 101.182 87.0962 103.216 89.9942 103.216ZM87.6362 97.42C87.8522 96.178 88.5902 95.368 89.7242 95.368C90.8762 95.368 91.5962 96.196 91.7582 97.42H87.6362ZM96.4613 103H99.1973V99.436C99.1973 97.132 100.313 96.034 102.131 96.034H102.275V93.172C100.655 93.1 99.7553 93.964 99.1973 95.296V93.352H96.4613V103ZM104.921 98.716H106.433L107.279 90.76V90.4H104.075V90.76L104.921 98.716ZM104.219 103H107.135V100.12H104.219V103Z" fill="white"/>
<path d="M88.7284 44.7609C88.1903 44.1281 87.4055 43.7653 86.5753 43.7653H83.8504V42.9129C83.8504 41.8582 82.9922 41 81.9375 41H63.4588C62.4039 41 61.5459 41.8582 61.5459 42.9128V43.7652H58.8207C57.9905 43.7652 57.2056 44.1281 56.6676 44.7608C56.135 45.3871 55.9048 46.2096 56.0362 47.0174C56.7522 51.4201 59.5229 55.3097 63.4553 57.4432C63.8146 58.307 64.2215 59.1253 64.6747 59.8876C66.1221 62.3232 67.9215 64.0065 69.9021 64.8205C70.1029 66.85 68.7524 68.7727 66.7186 69.2309C66.7143 69.2319 66.7112 69.2334 66.707 69.2344C66.31 69.3292 66.0146 69.6854 66.0146 70.1113V74.2523H64.3398C62.8467 74.2523 61.632 75.467 61.632 76.9601V79.0974C61.632 79.5959 62.0361 80 62.5346 80H82.9478C83.4463 80 83.8504 79.5959 83.8504 79.0974V76.9601C83.8504 75.467 82.6357 74.2523 81.1425 74.2523H79.4677V70.1114C79.4677 69.6846 79.1711 69.3279 78.7731 69.2339C78.7694 69.233 78.7658 69.2318 78.7621 69.2309C76.7129 68.7697 75.36 66.8276 75.5818 64.7829C77.5278 63.9557 79.2957 62.2874 80.7218 59.8878C81.1749 59.1254 81.5818 58.307 81.9411 57.443C85.8733 55.3094 88.6439 51.42 89.3599 47.0174C89.4913 46.2096 89.2611 45.3871 88.7284 44.7609ZM57.818 46.7275C57.7711 46.4391 57.8508 46.1559 58.0426 45.9303C58.2372 45.7015 58.5208 45.5703 58.8206 45.5703H61.5458V47.231C61.5458 49.835 61.8782 52.3574 62.5081 54.6641C60.0328 52.7081 58.3285 49.8667 57.818 46.7275ZM81.1425 76.0576C81.6403 76.0576 82.0452 76.4626 82.0452 76.9603V78.1949H63.4372V76.9603C63.4372 76.4626 63.8421 76.0576 64.3398 76.0576H81.1425V76.0576ZM77.6624 71.0141V74.2524H67.82V71.0141H77.6624ZM70.1872 69.2089C70.4103 68.9633 70.6143 68.6971 70.7967 68.4121C71.3982 67.4722 71.714 66.4044 71.7281 65.3139C72.0488 65.3575 72.3723 65.3809 72.6987 65.3809C73.0537 65.3809 73.4055 65.3536 73.7538 65.302C73.7744 66.7675 74.3447 68.1546 75.3038 69.2088H70.1872V69.2089ZM82.045 47.2311C82.045 51.6779 81.0239 55.8453 79.1698 58.9653C77.4032 61.9383 75.1049 63.5756 72.6985 63.5756C70.2917 63.5756 67.9933 61.9384 66.2265 58.9655C64.3723 55.8454 63.3511 51.678 63.3511 47.2313V42.9128C63.3511 42.8534 63.3994 42.8052 63.4587 42.8052H81.9373C81.9967 42.8052 82.045 42.8535 82.045 42.9128V47.2311V47.2311ZM87.5781 46.7275C87.0676 49.8664 85.3635 52.7078 82.8883 54.664C83.518 52.3572 83.8504 49.835 83.8504 47.2311V45.5704H86.5753C86.8753 45.5704 87.1588 45.7016 87.3533 45.9304C87.5451 46.1559 87.6249 46.4391 87.5781 46.7275Z" fill="white"/>
<path d="M78.1778 50.2664C78.0715 49.9398 77.7891 49.7017 77.4491 49.6522L74.7254 49.2564L73.5073 46.7883C73.3552 46.4802 73.0414 46.2852 72.6979 46.2852C72.3543 46.2852 72.0405 46.4802 71.8885 46.7883L70.6704 49.2564L67.9467 49.6522C67.6066 49.7015 67.3242 49.9397 67.218 50.2665C67.1119 50.5934 67.2004 50.952 67.4464 51.1919L69.4174 53.113L68.9521 55.8257C68.8939 56.1644 69.0331 56.5065 69.3111 56.7085C69.589 56.9105 69.9576 56.9371 70.2617 56.7772L72.6979 55.4966L75.134 56.7772C75.2661 56.8466 75.4103 56.8808 75.5539 56.8808C75.741 56.8808 75.9273 56.8227 76.0845 56.7085C76.3625 56.5065 76.5017 56.1643 76.4436 55.8256L75.9782 53.1129L77.9492 51.1918C78.1954 50.952 78.2839 50.5933 78.1778 50.2664ZM74.3785 52.1515C74.1658 52.3588 74.0687 52.6576 74.119 52.9504L74.3552 54.3284L73.1178 53.6778C72.9864 53.6086 72.8421 53.5742 72.6978 53.5742C72.5535 53.5742 72.4093 53.6088 72.2778 53.6778L71.0404 54.3284L71.2767 52.9504C71.3269 52.6576 71.2298 52.3589 71.0171 52.1515L70.0161 51.1757L71.3995 50.9746C71.6935 50.932 71.9477 50.7472 72.0791 50.4809L72.6979 49.2272L73.3166 50.4809C73.4481 50.7472 73.7021 50.9319 73.9962 50.9746L75.3796 51.1757L74.3785 52.1515Z" fill="white"/>
<defs>
<filter id="filter0_d" x="0.914062" y="0.259766" width="147.172" height="152.481" filterUnits="userSpaceOnUse" color-interpolation-filters="sRGB">
<feFlood flood-opacity="0" result="BackgroundImageFix"/>
<feColorMatrix in="SourceAlpha" type="matrix" values="0 0 0 0 0 0 0 0 0 0 0 0 0 0 0 0 0 0 127 0"/>
<feOffset dx="2" dy="4"/>
<feGaussianBlur stdDeviation="5"/>
<feColorMatrix type="matrix" values="0 0 0 0 0.353848 0 0 0 0 0.110022 0 0 0 0 0.220994 0 0 0 0.4 0"/>
<feBlend mode="normal" in2="BackgroundImageFix" result="effect1_dropShadow"/>
<feBlend mode="normal" in="SourceGraphic" in2="effect1_dropShadow" result="shape"/>
</filter>
</defs>
</svg>
