<svg width="78" height="88" viewBox="0 0 78 88" fill="none" xmlns="http://www.w3.org/2000/svg">
<path d="M76.3396 41.3968C78.3514 42.5492 78.3514 45.4508 76.3396 46.6032L5.24564 87.3268C3.24566 88.4724 0.754505 87.0284 0.754505 84.7236L0.754508 3.27642C0.754509 0.97156 3.24566 -0.472382 5.24564 0.673236L76.3396 41.3968Z" fill="white" fill-opacity="0.7"/>
</svg>
