<svg width="46" height="84" viewBox="0 0 46 84" fill="none" xmlns="http://www.w3.org/2000/svg">
<path d="M38.4633 83.2931V79.9058C40.8023 79.9058 42.719 77.9073 42.719 75.4685V7.85847C42.719 5.38577 40.8023 3.38727 38.4633 3.38727H7.66673C5.29526 3.38727 3.37859 5.38577 3.37859 7.85847V43.12H0.130005V7.85847C0.130005 3.52276 3.50854 0 7.66673 0H38.4958C42.654 0 46.0001 3.52276 46.0001 7.85847V75.4685C46.0001 79.7703 42.6215 83.2931 38.4633 83.2931Z" fill="white"/>
<path d="M14.651 83.125H11.4024C11.4024 76.7227 6.39958 71.5398 0.292236 71.5398V68.1523C8.21879 68.1523 14.651 74.8596 14.651 83.125Z" fill="white"/>
<path d="M24.2993 83.123H21.0507C21.0507 71.1666 11.7273 61.4457 0.259766 61.4457V58.0586C13.5465 58.0586 24.2993 69.3037 24.2993 83.123Z" fill="white"/>
<path d="M34.045 83.123H30.7965C30.7965 65.5765 17.1199 51.2819 0.292236 51.2819V47.8945C18.9066 47.9284 34.045 63.7135 34.045 83.123Z" fill="white"/>
<path d="M2.04662 83.1238C3.17693 83.1238 4.09323 82.1683 4.09323 80.9896C4.09323 79.811 3.17693 78.8555 2.04662 78.8555C0.916301 78.8555 0 79.811 0 80.9896C0 82.1683 0.916301 83.1238 2.04662 83.1238Z" fill="white"/>
</svg>
