<svg width="25" height="29" viewBox="0 0 25 29" fill="none" xmlns="http://www.w3.org/2000/svg">
<path d="M22.8044 11.9393C24.7206 13.1088 24.7206 15.8912 22.8044 17.0607L5.31291 27.7365C3.31381 28.9567 0.749999 27.5178 0.749999 25.1758L0.75 3.82418C0.75 1.48215 3.31381 0.043332 5.31292 1.26347L22.8044 11.9393Z" fill="white"/>
</svg>
